Homework Assignment #1
…
##  Conflicts  tidyverse_conflicts() 
## x dplyr::filter() masks stats::filter()
## x dplyr::lag()    masks stats::lag()

auto_claims <- read_rds("~/https:/github.com/mason-sp22-cds101/ideal-jiwon/auto_claims.rds")

The auto_claims data contains information on auto accident claims processed by an insurance company in the western part of the United States.

Each row represents a claim made by a customer and includes customer demographics, their policy characteristics, monthly premium, vehicle information, claim amount, and customer lifetime value

auto_claims

## # A tibble: 6,249 x 17
##    customer_id customer_state highest_education employment_status gender income
##    <chr>       <fct>          <fct>             <fct>             <fct>   <dbl>
##  1 AA11235     Nevada         Bachelor          Medical Leave     Female  11167
##  2 AA16582     Washington     Bachelor          Medical Leave     Male    14072
##  3 AA34092     California     Associate         Employed          Male    33635
##  4 AA56476     Arizona        High School       Employed          Female  74454
##  5 AA69265     Nevada         Bachelor          Employed          Female  60817
##  6 AA71604     Arizona        Master            Employed          Female  87560
##  7 AA93585     California     Associate         Employed          Male    97024
##  8 AB21519     California     Associate         Employed          Female  93272
##  9 AB23825     California     Associate         Employed          Male    21509
## 10 AB26022     Oregon         High School       Retired           Male    26487
## #  with 6,239 more rows, and 11 more variables: residence_type <fct>,
## #   marital_status <fct>, sales_channel <fct>, coverage <fct>, policy <fct>,
## #   vehicle_class <fct>, vehicle_size <fct>, monthly_premium <dbl>,
## #   months_since_last_claim <dbl>, total_claim_amount <dbl>,
## #   customer_lifetime_value <dbl>
…
This table contains the number of claims, maximum claim amount (total_claim_amount variable), and minimum customer lifetime value by customer_state and months_since_last_claim binned into 12 month categories.

Hint: You will need to create the month_category variable using cut_width() before you calculate the summaries by groups.

library(dplyr)
auto_claims %>%
 mutate(month_category=cut_width(monthly_premium, width =12, boundary=0))%>%
  group_by(customer_state) %>%
  summarize(n_claims = total_claim_amount, avg_claim_amunt = mean(total_claim_amount), min_customer_lifetime_val = min(customer_lifetime_value), month_category)

## `summarise()` has grouped output by 'customer_state'. You can override using the
## `.groups` argument.

## # A tibble: 6,249 x 5
## # Groups:   customer_state [5]
##    customer_state n_claims avg_claim_amunt min_customer_lifetime month_category
##    <fct>             <dbl>           <dbl>                  <dbl> <fct>         
##  1 Washington        1511.           1405.                  2227. [60,72]       
##  2 Washington        1166.           1405.                  2227. [60,72]       
##  3 Washington        1466.           1405.                  2227. (96,108]      
##  4 Washington        1256.           1405.                  2227. (108,120]     
##  5 Washington        1494.           1405.                  2227. (72,84]       
##  6 Washington        1302.           1405.                  2227. [60,72]       
##  7 Washington        1458            1405.                  2227. [60,72]       
##  8 Washington        1508.           1405.                  2227. (72,84]       
##  9 Washington        1416.           1405.                  2227. (132,144]     
## 10 Washington        1468            1405.                  2227. [60,72]       
## #  with 6,239 more rows
…
